[
    {
        "_id": 5130,
        "sabor": "Muzzarella",
        "precio": 10000,
        "tipo": "piedra",
        "cantidad": 160
    },
    {
        "_id": 5334,
        "sabor": "Queso Crema",
        "precio": 2500,
        "tipo": "piedra",
        "cantidad": 10
    },
    {
        "_id": 4404,
        "sabor": "Muzzarella",
        "precio": 10000,
        "tipo": "molde",
        "cantidad": 580
    }
]
